Lab11/pm.vcd
$date
	Sun Nov 12 18:20:45 2017
$end
$version
	Icarus Verilog
$end
$timescale
	1s
$end
$scope module test $end
$var wire 32 ! PC [31:0] $end
$var reg 1 " clk $end
$var reg 1 # done $end
$var integer 32 $ i [31:0] $end
$var reg 1 % reset $end
$scope module pm $end
$var wire 3 & ALUOp [2:0] $end
$var wire 1 ' ALUSrc $end
$var wire 1 ( BEQ $end
$var wire 32 ) B_data [31:0] $end
$var wire 1 * MemRead $end
$var wire 1 + MemRead_MW $end
$var wire 1 , MemToReg $end
$var wire 1 - MemToReg_MW $end
$var wire 1 . MemWrite $end
$var wire 1 / MemWrite_MW $end
$var wire 32 0 PC [31:0] $end
$var wire 1 1 PCSrc $end
$var wire 30 2 PC_plus4_DE [31:2] $end
$var wire 30 3 PC_plus4_IF [31:2] $end
$var wire 30 4 PC_target [31:2] $end
$var wire 1 5 RegDst $end
$var wire 1 6 RegWrite $end
$var wire 1 7 RegWrite_MW $end
$var wire 32 8 alu_out_data_DE [31:0] $end
$var wire 32 9 alu_out_data_MW [31:0] $end
$var wire 1 : clk $end
$var wire 1 ; flush $end
$var wire 1 < forwardA $end
$var wire 1 = forwardB $end
$var wire 6 > funct [5:0] $end
$var wire 1 ? guard $end
$var wire 32 @ imm [31:0] $end
$var wire 32 A inst_DE [31:0] $end
$var wire 32 B inst_IF [31:0] $end
$var wire 32 C load_data [31:0] $end
$var wire 30 D next_PC [31:2] $end
$var wire 6 E opcode [5:0] $end
$var wire 5 F rd [4:0] $end
$var wire 32 G rd1_data [31:0] $end
$var wire 32 H rd2_data [31:0] $end
$var wire 1 I reset $end
$var wire 5 J rs [4:0] $end
$var wire 32 K rs_select [31:0] $end
$var wire 5 L rt [4:0] $end
$var wire 32 M rt_select [31:0] $end
$var wire 32 N rt_select_MW [31:0] $end
$var wire 1 O stall $end
$var wire 32 P wr_data [31:0] $end
$var wire 5 Q wr_regnum [4:0] $end
$var wire 5 R wr_regnum_MW [4:0] $end
$var wire 1 S zero $end
$scope module inst_fd_pipe $end
$var wire 1 : clk $end
$var wire 32 T d [31:0] $end
$var wire 1 U enable $end
$var wire 1 V reset $end
$var reg 32 W q [31:0] $end
$upscope $end
$scope module PC_plus4_fd_pipe $end
$var wire 1 : clk $end
$var wire 30 X d [29:0] $end
$var wire 1 Y enable $end
$var wire 1 Z reset $end
$var reg 30 [ q [29:0] $end
$upscope $end
$scope module wr_regnum_dm_pipe $end
$var wire 1 : clk $end
$var wire 5 \ d [4:0] $end
$var wire 1 ] enable $end
$var wire 1 ^ reset $end
$var reg 5 _ q [4:0] $end
$upscope $end
$scope module alu_out_data_dm_pipe $end
$var wire 1 : clk $end
$var wire 32 ` d [31:0] $end
$var wire 1 a enable $end
$var wire 1 b reset $end
$var reg 32 c q [31:0] $end
$upscope $end
$scope module RegWrite_dm_pipe $end
$var wire 1 : clk $end
$var wire 1 6 d $end
$var wire 1 d enable $end
$var wire 1 e reset $end
$var reg 1 f q $end
$upscope $end
$scope module MemRead_dm_pipe $end
$var wire 1 : clk $end
$var wire 1 * d $end
$var wire 1 g enable $end
$var wire 1 h reset $end
$var reg 1 i q $end
$upscope $end
$scope module MemWrite_dm_pipe $end
$var wire 1 : clk $end
$var wire 1 . d $end
$var wire 1 j enable $end
$var wire 1 k reset $end
$var reg 1 l q $end
$upscope $end
$scope module MemToReg_dm_pipe $end
$var wire 1 : clk $end
$var wire 1 , d $end
$var wire 1 m enable $end
$var wire 1 n reset $end
$var reg 1 o q $end
$upscope $end
$scope module rt_select_dm_pipe $end
$var wire 1 : clk $end
$var wire 32 p d [31:0] $end
$var wire 1 q enable $end
$var wire 1 r reset $end
$var reg 32 s q [31:0] $end
$upscope $end
$scope module mux_forwardA $end
$var wire 32 t A [31:0] $end
$var wire 32 u B [31:0] $end
$var wire 32 v out [31:0] $end
$var wire 1 < sel $end
$var wire 32 w temp1 [31:0] $end
$var wire 32 x temp2 [31:0] $end
$upscope $end
$scope module mux_forwardB $end
$var wire 32 y A [31:0] $end
$var wire 32 z B [31:0] $end
$var wire 32 { out [31:0] $end
$var wire 1 = sel $end
$var wire 32 | temp1 [31:0] $end
$var wire 32 } temp2 [31:0] $end
$upscope $end
$scope module PC_reg $end
$var wire 1 : clk $end
$var wire 30 ~ d [29:0] $end
$var wire 1 !" enable $end
$var wire 1 I reset $end
$var reg 30 "" q [29:0] $end
$upscope $end
$scope module next_PC_adder $end
$var wire 30 #" in1 [29:0] $end
$var wire 30 $" in2 [29:0] $end
$var wire 30 %" out [29:0] $end
$upscope $end
$scope module target_PC_adder $end
$var wire 30 &" in1 [29:0] $end
$var wire 30 '" in2 [29:0] $end
$var wire 30 (" out [29:0] $end
$upscope $end
$scope module branch_mux $end
$var wire 30 )" A [29:0] $end
$var wire 30 *" B [29:0] $end
$var wire 30 +" out [29:0] $end
$var wire 1 1 sel $end
$var wire 30 ," temp1 [29:0] $end
$var wire 30 -" temp2 [29:0] $end
$upscope $end
$scope module imem $end
$var wire 30 ." addr [29:0] $end
$var wire 32 /" data [31:0] $end
$var reg 32 0" i [31:0] $end
$upscope $end
$scope module decode $end
$var wire 3 1" ALUOp [2:0] $end
$var wire 1 ' ALUSrc $end
$var wire 1 ( BEQ $end
$var wire 1 * MemRead $end
$var wire 1 , MemToReg $end
$var wire 1 . MemWrite $end
$var wire 1 5 RegDst $end
$var wire 1 6 RegWrite $end
$var wire 6 2" funct [5:0] $end
$var wire 1 3" nop $end
$var wire 1 4" op0 $end
$var wire 6 5" opcode [5:0] $end
$upscope $end
$scope module rf $end
$var wire 1 : clock $end
$var wire 32 6" internal_rdData [31:0] $end
$var wire 32 7" rdData [31:0] $end
$var wire 5 8" rdNum [4:0] $end
$var wire 1 7 rdWriteEnable $end
$var wire 1 I reset $end
$var wire 32 9" rsData [31:0] $end
$var wire 5 :" rsNum [4:0] $end
$var wire 32 ;" rtData [31:0] $end
$var wire 5 <" rtNum [4:0] $end
$var integer 32 =" i [31:0] $end
$upscope $end
$scope module imm_mux $end
$var wire 32 >" A [31:0] $end
$var wire 32 ?" B [31:0] $end
$var wire 32 @" out [31:0] $end
$var wire 1 ' sel $end
$var wire 32 A" temp1 [31:0] $end
$var wire 32 B" temp2 [31:0] $end
$upscope $end
$scope module alu $end
$var wire 3 C" control [2:0] $end
$var wire 32 D" inA [31:0] $end
$var wire 32 E" inB [31:0] $end
$var wire 32 F" out [31:0] $end
$var wire 1 S zero $end
$upscope $end
$scope module data_memory $end
$var wire 32 G" addr [31:0] $end
$var wire 1 : clk $end
$var wire 32 H" d_out [31:0] $end
$var wire 32 I" data_in [31:0] $end
$var wire 32 J" data_out [31:0] $end
$var wire 19 K" index [18:0] $end
$var wire 32 L" internal_data_in [31:0] $end
$var wire 1 + mem_read $end
$var wire 1 / mem_write $end
$var wire 1 I reset $end
$var wire 1 M" valid_address $end
$var integer 32 N" i [31:0] $end
$upscope $end
$scope module wb_mux $end
$var wire 32 O" A [31:0] $end
$var wire 32 P" B [31:0] $end
$var wire 32 Q" out [31:0] $end
$var wire 1 - sel $end
$var wire 32 R" temp1 [31:0] $end
$var wire 32 S" temp2 [31:0] $end
$upscope $end
$scope module rd_mux $end
$var wire 5 T" A [4:0] $end
$var wire 5 U" B [4:0] $end
$var wire 5 V" out [4:0] $end
$var wire 1 5 sel $end
$var wire 5 W" temp1 [4:0] $end
$var wire 5 X" temp2 [4:0] $end
$upscope $end
$upscope $end
$upscope $end
$scope module test $end
$scope module pm $end
$scope module rf $end
$var reg 32 Y" \r[0] [31:0] $end
$upscope $end
$upscope $end
$upscope $end
$scope module test $end
$scope module pm $end
$scope module rf $end
$var reg 32 Z" \r[1] [31:0] $end
$upscope $end
$upscope $end
$upscope $end
$scope module test $end
$scope module pm $end
$scope module rf $end
$var reg 32 [" \r[2] [31:0] $end
$upscope $end
$upscope $end
$upscope $end
$scope module test $end
$scope module pm $end
$scope module rf $end
$var reg 32 \" \r[3] [31:0] $end
$upscope $end
$upscope $end
$upscope $end
$scope module test $end
$scope module pm $end
$scope module rf $end
$var reg 32 ]" \r[4] [31:0] $end
$upscope $end
$upscope $end
$upscope $end
$scope module test $end
$scope module pm $end
$scope module rf $end
$var reg 32 ^" \r[5] [31:0] $end
$upscope $end
$upscope $end
$upscope $end
$scope module test $end
$scope module pm $end
$scope module rf $end
$var reg 32 _" \r[6] [31:0] $end
$upscope $end
$upscope $end
$upscope $end
$scope module test $end
$scope module pm $end
$scope module rf $end
$var reg 32 `" \r[7] [31:0] $end
$upscope $end
$upscope $end
$upscope $end
$scope module test $end
$scope module pm $end
$scope module rf $end
$var reg 32 a" \r[8] [31:0] $end
$upscope $end
$upscope $end
$upscope $end
$scope module test $end
$scope module pm $end
$scope module rf $end
$var reg 32 b" \r[9] [31:0] $end
$upscope $end
$upscope $end
$upscope $end
$scope module test $end
$scope module pm $end
$scope module rf $end
$var reg 32 c" \r[10] [31:0] $end
$upscope $end
$upscope $end
$upscope $end
$scope module test $end
$scope module pm $end
$scope module rf $end
$var reg 32 d" \r[11] [31:0] $end
$upscope $end
$upscope $end
$upscope $end
$scope module test $end
$scope module pm $end
$scope module rf $end
$var reg 32 e" \r[12] [31:0] $end
$upscope $end
$upscope $end
$upscope $end
$scope module test $end
$scope module pm $end
$scope module rf $end
$var reg 32 f" \r[13] [31:0] $end
$upscope $end
$upscope $end
$upscope $end
$scope module test $end
$scope module pm $end
$scope module rf $end
$var reg 32 g" \r[14] [31:0] $end
$upscope $end
$upscope $end
$upscope $end
$scope module test $end
$scope module pm $end
$scope module rf $end
$var reg 32 h" \r[15] [31:0] $end
$upscope $end
$upscope $end
$upscope $end
$scope module test $end
$scope module pm $end
$scope module rf $end
$var reg 32 i" \r[16] [31:0] $end
$upscope $end
$upscope $end
$upscope $end
$scope module test $end
$scope module pm $end
$scope module rf $end
$var reg 32 j" \r[17] [31:0] $end
$upscope $end
$upscope $end
$upscope $end
$scope module test $end
$scope module pm $end
$scope module rf $end
$var reg 32 k" \r[18] [31:0] $end
$upscope $end
$upscope $end
$upscope $end
$scope module test $end
$scope module pm $end
$scope module rf $end
$var reg 32 l" \r[19] [31:0] $end
$upscope $end
$upscope $end
$upscope $end
$scope module test $end
$scope module pm $end
$scope module rf $end
$var reg 32 m" \r[20] [31:0] $end
$upscope $end
$upscope $end
$upscope $end
$scope module test $end
$scope module pm $end
$scope module rf $end
$var reg 32 n" \r[21] [31:0] $end
$upscope $end
$upscope $end
$upscope $end
$scope module test $end
$scope module pm $end
$scope module rf $end
$var reg 32 o" \r[22] [31:0] $end
$upscope $end
$upscope $end
$upscope $end
$scope module test $end
$scope module pm $end
$scope module rf $end
$var reg 32 p" \r[23] [31:0] $end
$upscope $end
$upscope $end
$upscope $end
$scope module test $end
$scope module pm $end
$scope module rf $end
$var reg 32 q" \r[24] [31:0] $end
$upscope $end
$upscope $end
$upscope $end
$scope module test $end
$scope module pm $end
$scope module rf $end
$var reg 32 r" \r[25] [31:0] $end
$upscope $end
$upscope $end
$upscope $end
$scope module test $end
$scope module pm $end
$scope module rf $end
$var reg 32 s" \r[26] [31:0] $end
$upscope $end
$upscope $end
$upscope $end
$scope module test $end
$scope module pm $end
$scope module rf $end
$var reg 32 t" \r[27] [31:0] $end
$upscope $end
$upscope $end
$upscope $end
$scope module test $end
$scope module pm $end
$scope module rf $end
$var reg 32 u" \r[28] [31:0] $end
$upscope $end
$upscope $end
$upscope $end
$scope module test $end
$scope module pm $end
$scope module rf $end
$var reg 32 v" \r[29] [31:0] $end
$upscope $end
$upscope $end
$upscope $end
$scope module test $end
$scope module pm $end
$scope module rf $end
$var reg 32 w" \r[30] [31:0] $end
$upscope $end
$upscope $end
$upscope $end
$scope module test $end
$scope module pm $end
$scope module rf $end
$var reg 32 x" \r[31] [31:0] $end
$upscope $end
$upscope $end
$upscope $end
$enddefinitions $end
#0
$dumpvars
b10000000000010000000000000000 x"
b10000000000010000000000000000 w"
b10000000000010000000000000000 v"
b10000000000010000000000000000 u"
b10000000000010000000000000000 t"
b10000000000010000000000000000 s"
b10000000000010000000000000000 r"
b10000000000010000000000000000 q"
b10000000000010000000000000000 p"
b10000000000010000000000000000 o"
b10000000000010000000000000000 n"
b10000000000010000000000000000 m"
b10000000000010000000000000000 l"
b10000000000010000000000000000 k"
b10000000000010000000000000000 j"
b10000000000010000000000000000 i"
b10000000000010000000000000000 h"
b10000000000010000000000000000 g"
b10000000000010000000000000000 f"
b10000000000010000000000000000 e"
b10000000000010000000000000000 d"
b10000000000010000000000000000 c"
b10000000000010000000000000000 b"
b10000000000010000000000000000 a"
b10000000000010000000000000000 `"
b10000000000010000000000000000 _"
b10000000000010000000000000000 ^"
b10000000000010000000000000000 ]"
b10000000000010000000000000000 \"
b10000000000010000000000000000 ["
b10000000000010000000000000000 Z"
b0 Y"
bx X"
bx W"
bx V"
bx U"
bx T"
bx S"
bx R"
bx Q"
bx P"
bx O"
b1000000000000000000 N"
xM"
bx L"
bx K"
bx J"
bx I"
bx H"
bx G"
bx F"
bx E"
bx D"
bx C"
bx B"
bx A"
bx @"
bx ?"
bx >"
b100000 ="
bx <"
bx ;"
bx :"
bx 9"
bx 8"
bx 7"
bx 6"
bx 5"
x4"
x3"
bx 2"
bx 1"
b100000000 0"
bx /"
bx ."
bx -"
bx ,"
bx +"
bx *"
bx )"
bx ("
bx '"
bx &"
bx %"
b1 $"
bx #"
bx ""
x!"
bx ~
bx }
bx |
bx {
bx z
bx y
bx x
bx w
bx v
bx u
bx t
bx s
1r
1q
bx p
xo
1n
1m
xl
1k
1j
xi
1h
1g
xf
1e
1d
bx c
1b
1a
bx `
bx _
1^
1]
bx \
bx [
1Z
xY
bx X
bx W
1V
xU
bx T
xS
bx R
bx Q
bx P
xO
bx N
bx M
bx L
bx K
bx J
1I
bx H
bx G
bx F
bx E
bx D
bx C
bx B
bx A
bx @
x?
bx >
x=
x<
x;
0:
bx 9
bx 8
x7
x6
x5
bx 4
bx 3
bx 2
x1
bx00 0
x/
x.
x-
x,
x+
x*
bx )
x(
x'
bx &
1%
b100000 $
0#
0"
bx00 !
$end
#6
b0 Q
b0 \
b0 V"
b0 X"
b0 W"
1?
b0 '"
b0 B"
b11011110101011011011111011101111 H"
b0 K"
0=
0<
1!"
1Y
1U
b0 P
b0 7"
b0 Q"
b0 >
b0 2"
14"
b0 E
b0 5"
b0 F
b0 U"
b0 L
b0 <"
b0 T"
b0 J
b0 :"
b0 @
b0 ?"
b0 x
b0 }
0M"
0O
b0 R"
b0 S"
b100000000000000000000 #"
b100000000000000000000 ."
b0 W
b0 A
b0 [
b0 2
b0 &"
b0 _
b0 R
b0 8"
b0 c
b0 9
b0 u
b0 z
b0 G"
b0 O"
0f
07
0i
0+
0l
0/
0o
0-
b0 s
b0 N
b0 I"
b100000000000000000000 ""
b10000000000000000000000 0
b10000000000000000000000 !
1"
1:
#7
b0 )
b0 @"
b0 E"
b0 A"
b0 M
b0 p
b0 {
b0 >"
b0 K
b0 v
b0 D"
x^
xb
xe
xh
xk
xn
xr
b0 |
b0 w
xV
xZ
b0 6"
b0 H
b0 y
b0 ;"
b0 G
b0 t
b0 9"
0%
0I
#8
06
0r
0n
0k
0h
0e
0b
0^
0Z
0V
b100000000000000000001 D
b100000000000000000001 ~
b100000000000000000001 +"
b0 -"
01
0;
15
0'
b100000000000000000001 ,"
1S
b0 &
b0 1"
b0 C"
13"
b0 4
b0 ("
b0 *"
0(
0,
0*
0.
b100000000000000000001 3
b100000000000000000001 X
b100000000000000000001 %"
b100000000000000000001 )"
#9
b0 8
b0 `
b0 F"
b10001110100000100000000000000000 B
b10001110100000100000000000000000 T
b10001110100000100000000000000000 /"
b0 C
b0 J"
b0 P"
b0 L"
#12
0"
0:
#18
0?
b100000000000000000001 #"
b100000000000000000001 ."
04"
b100011 E
b100011 5"
b10 L
b10 <"
b10 T"
b10100 J
b10100 :"
b100000000000000000001 ""
b10000000000000000000100 0
b10000000000000000000100 !
b100000000000000000001 [
b100000000000000000001 2
b100000000000000000001 &"
b10001110100000100000000000000000 W
b10001110100000100000000000000000 A
1"
1:
#19
b10000000000010000000000000000 )
b10000000000010000000000000000 @"
b10000000000010000000000000000 E"
b10000000000010000000000000000 A"
b10000000000010000000000000000 M
b10000000000010000000000000000 p
b10000000000010000000000000000 {
b10000000000010000000000000000 >"
b10000000000010000000000000000 K
b10000000000010000000000000000 v
b10000000000010000000000000000 D"
b10000000000010000000000000000 |
b10000000000010000000000000000 w
b10000000000010000000000000000 H
b10000000000010000000000000000 y
b10000000000010000000000000000 ;"
b10000000000010000000000000000 G
b10000000000010000000000000000 t
b10000000000010000000000000000 9"
#20
b10 Q
b10 \
b10 V"
b0 )
b0 @"
b0 E"
16
b100000000000000000010 D
b100000000000000000010 ~
b100000000000000000010 +"
b10 W"
b0 A"
b100000000000000000010 ,"
05
1'
03"
b100000000000000000010 3
b100000000000000000010 X
b100000000000000000010 %"
b100000000000000000010 )"
1,
1*
b100000000000000000001 4
b100000000000000000001 ("
b100000000000000000001 *"
#21
0S
b10001110100000110000000000000100 B
b10001110100000110000000000000100 T
b10001110100000110000000000000100 /"
#22
b10000000000010000000000000000 8
b10000000000010000000000000000 `
b10000000000010000000000000000 F"
#24
0"
0:
#30
0r
0n
0k
0h
0e
0b
0^
b11 Q
b11 \
b11 V"
b100 )
b100 @"
b100 E"
1!"
1Y
1U
b10000000000010000000000000000 |
b0 }
b11 W"
b100 '"
b100 B"
0O
b1 H"
b100000000000000 K"
0=
b100 >
b100 2"
b11 L
b11 <"
b11 T"
b100 @
b100 ?"
1M"
b100000000000000000010 #"
b100000000000000000010 ."
b10001110100000110000000000000100 W
b10001110100000110000000000000100 A
b100000000000000000010 [
b100000000000000000010 2
b100000000000000000010 &"
b10 _
b10 R
b10 8"
b10000000000010000000000000000 c
b10000000000010000000000000000 9
b10000000000010000000000000000 u
b10000000000010000000000000000 z
b10000000000010000000000000000 G"
b10000000000010000000000000000 O"
1f
17
1i
1+
1o
1-
b10000000000010000000000000000 s
b10000000000010000000000000000 N
b10000000000010000000000000000 I"
b100000000000000000010 ""
b10000000000000000001000 0
b10000000000000000001000 !
1"
1:
#32
b100000000000000000011 D
b100000000000000000011 ~
b100000000000000000011 +"
b100000000000000000011 ,"
b10000000000010000000000000100 8
b10000000000010000000000000100 `
b10000000000010000000000000100 F"
b100000000000000000011 3
b100000000000000000011 X
b100000000000000000011 %"
b100000000000000000011 )"
b100000000000000000110 4
b100000000000000000110 ("
b100000000000000000110 *"
#33
b1 P
b1 7"
b1 Q"
b1 S"
b10001110100001000000000000001000 B
b10001110100001000000000000001000 T
b10001110100001000000000000001000 /"
b1 C
b1 J"
b1 P"
b10000000000010000000000000000 L"
#34
b1 6"
#36
0"
0:
#42
b100 Q
b100 \
b100 V"
b1000 )
b1000 @"
b1000 E"
b11111111 H"
b100000000000001 K"
b100 W"
b1000 '"
b1000 B"
b100000000000000000011 #"
b100000000000000000011 ."
b1000 >
b1000 2"
b100 L
b100 <"
b100 T"
b1000 @
b1000 ?"
b1 ["
b100000000000000000011 ""
b10000000000000000001100 0
b10000000000000000001100 !
b10000000000010000000000000100 c
b10000000000010000000000000100 9
b10000000000010000000000000100 u
b10000000000010000000000000100 z
b10000000000010000000000000100 G"
b10000000000010000000000000100 O"
b11 _
b11 R
b11 8"
b100000000000000000011 [
b100000000000000000011 2
b100000000000000000011 &"
b10001110100001000000000000001000 W
b10001110100001000000000000001000 A
1"
1:
#44
b100000000000000000100 D
b100000000000000000100 ~
b100000000000000000100 +"
b100000000000000000100 ,"
b10000000000010000000000001000 8
b10000000000010000000000001000 `
b10000000000010000000000001000 F"
b100000000000000000100 3
b100000000000000000100 X
b100000000000000000100 %"
b100000000000000000100 )"
b100000000000000001011 4
b100000000000000001011 ("
b100000000000000001011 *"
#45
b11111111 P
b11111111 7"
b11111111 Q"
b11111111 S"
b11111111 C
b11111111 J"
b11111111 P"
b10001110100001010000000000001100 B
b10001110100001010000000000001100 T
b10001110100001010000000000001100 /"
#46
b11111111 6"
#48
0"
0:
#54
0r
0n
0k
0h
0e
0b
0^
b10000000000010000000000000000 M
b10000000000010000000000000000 p
b10000000000010000000000000000 {
b10000000000010000000000000000 >"
b101 Q
b101 \
b101 V"
b1100 )
b1100 @"
b1100 E"
1!"
1Y
1U
b10000000000010000000000000000 |
b0 }
b101 W"
b1100 '"
b1100 B"
0O
0=
b10000000000 H"
b100000000000010 K"
b1100 >
b1100 2"
b101 L
b101 <"
b101 T"
b1100 @
b1100 ?"
b100000000000000000100 #"
b100000000000000000100 ."
b10001110100001010000000000001100 W
b10001110100001010000000000001100 A
b100000000000000000100 [
b100000000000000000100 2
b100000000000000000100 &"
b100 _
b100 R
b100 8"
b10000000000010000000000001000 c
b10000000000010000000000001000 9
b10000000000010000000000001000 u
b10000000000010000000000001000 z
b10000000000010000000000001000 G"
b10000000000010000000000001000 O"
b100000000000000000100 ""
b10000000000000000010000 0
b10000000000000000010000 !
b11111111 \"
1"
1:
#56
b100000000000000000101 D
b100000000000000000101 ~
b100000000000000000101 +"
b100000000000000000101 ,"
b10000000000010000000000001100 8
b10000000000010000000000001100 `
b10000000000010000000000001100 F"
b100000000000000000101 3
b100000000000000000101 X
b100000000000000000101 %"
b100000000000000000101 )"
b100000000000000010000 4
b100000000000000010000 ("
b100000000000000010000 *"
#57
b10000000000 P
b10000000000 7"
b10000000000 Q"
b10000000000 S"
b10000000000 C
b10000000000 J"
b10000000000 P"
b10001110100001100000000000010000 B
b10001110100001100000000000010000 T
b10001110100001100000000000010000 /"
#58
b10000000000 6"
#60
0"
0:
#66
b110 Q
b110 \
b110 V"
b10000 )
b10000 @"
b10000 E"
b1100100 H"
b100000000000011 K"
b110 W"
b10000 '"
b10000 B"
b100000000000000000101 #"
b100000000000000000101 ."
b10000 >
b10000 2"
b110 L
b110 <"
b110 T"
b10000 @
b10000 ?"
b10000000000 ]"
b100000000000000000101 ""
b10000000000000000010100 0
b10000000000000000010100 !
b10000000000010000000000001100 c
b10000000000010000000000001100 9
b10000000000010000000000001100 u
b10000000000010000000000001100 z
b10000000000010000000000001100 G"
b10000000000010000000000001100 O"
b101 _
b101 R
b101 8"
b100000000000000000101 [
b100000000000000000101 2
b100000000000000000101 &"
b10001110100001100000000000010000 W
b10001110100001100000000000010000 A
1"
1:
#68
b100000000000000000110 D
b100000000000000000110 ~
b100000000000000000110 +"
b100000000000000000110 ,"
b10000000000010000000000010000 8
b10000000000010000000000010000 `
b10000000000010000000000010000 F"
b100000000000000000110 3
b100000000000000000110 X
b100000000000000000110 %"
b100000000000000000110 )"
b100000000000000010101 4
b100000000000000010101 ("
b100000000000000010101 *"
#69
b1100100 P
b1100100 7"
b1100100 Q"
b1100100 S"
b1100100 C
b1100100 J"
b1100100 P"
b10000100011100000100000 B
b10000100011100000100000 T
b10000100011100000100000 /"
#70
b1100100 6"
#72
0"
0:
#78
0r
0n
0k
0h
0e
0b
0^
b10000000000010000000000000000 M
b10000000000010000000000000000 p
b10000000000010000000000000000 {
b10000000000010000000000000000 >"
b10 Q
b10 \
b10 V"
b11100000100000 )
b11100000100000 @"
b11100000100000 E"
1!"
1Y
1U
b10000000000010000000000000000 |
b0 }
b10 W"
b11100000100000 '"
b11100000100000 B"
0O
0=
b11001000 H"
b100000000000100 K"
b100000 >
b100000 2"
14"
b0 E
b0 5"
b111 F
b111 U"
b10 L
b10 <"
b10 T"
b10 J
b10 :"
b11100000100000 @
b11100000100000 ?"
b100000000000000000110 #"
b100000000000000000110 ."
b10000100011100000100000 W
b10000100011100000100000 A
b100000000000000000110 [
b100000000000000000110 2
b100000000000000000110 &"
b110 _
b110 R
b110 8"
b10000000000010000000000010000 c
b10000000000010000000000010000 9
b10000000000010000000000010000 u
b10000000000010000000000010000 z
b10000000000010000000000010000 G"
b10000000000010000000000010000 O"
b100000000000000000110 ""
b10000000000000000011000 0
b10000000000000000011000 !
b1100100 ^"
1"
1:
#79
b1 M
b1 p
b1 {
b1 >"
b1 K
b1 v
b1 D"
b1 |
b1 w
b1 H
b1 y
b1 ;"
b1 G
b1 t
b1 9"
#80
b111 Q
b111 \
b111 V"
b1 )
b1 @"
b1 E"
b0 W"
b111 X"
b1 A"
b0 B"
b100000000000000000111 D
b100000000000000000111 ~
b100000000000000000111 +"
15
0'
b100000000000000000111 ,"
0,
0*
b100000000000000000111 3
b100000000000000000111 X
b100000000000000000111 %"
b100000000000000000111 )"
b100000011100000100110 4
b100000011100000100110 ("
b100000011100000100110 *"
#81
b11001000 P
b11001000 7"
b11001000 Q"
b11001000 S"
1S
b11001000 C
b11001000 J"
b11001000 P"
b100000110100000000100000 B
b100000110100000000100000 T
b100000110100000000100000 /"
#82
b11001000 6"
b10 8
b10 `
b10 F"
#84
0"
0:
#90
b1000 Q
b1000 \
b1000 V"
b11011110101011011011111011101111 H"
b0 K"
b10 P
b10 7"
b10 Q"
b1000 X"
b100000000100000 '"
b100000000000000000111 #"
b100000000000000000111 ."
b0 S"
0M"
b10 R"
b1000 F
b1000 U"
b11 L
b11 <"
b11 T"
b100 J
b100 :"
b100000000100000 @
b100000000100000 ?"
b11001000 _"
b100000000000000000111 ""
b10000000000000000011100 0
b10000000000000000011100 !
b1 s
b1 N
b1 I"
0o
0-
0i
0+
b10 c
b10 9
b10 u
b10 z
b10 G"
b10 O"
b111 _
b111 R
b111 8"
b100000000000000000111 [
b100000000000000000111 2
b100000000000000000111 &"
b100000110100000000100000 W
b100000110100000000100000 A
1"
1:
#91
b11111111 )
b11111111 @"
b11111111 E"
b11111111 A"
b11111111 M
b11111111 p
b11111111 {
b11111111 >"
b10000000000 K
b10000000000 v
b10000000000 D"
b11111111 |
b10000000000 w
b10 6"
b11111111 H
b11111111 y
b11111111 ;"
b10000000000 G
b10000000000 t
b10000000000 9"
#92
b100000000000000001000 D
b100000000000000001000 ~
b100000000000000001000 +"
b100000000000000001000 ,"
0S
b100000000000000001000 3
b100000000000000001000 X
b100000000000000001000 %"
b100000000000000001000 )"
b100000100000000100111 4
b100000100000000100111 ("
b100000100000000100111 *"
#93
b10011111111 8
b10011111111 `
b10011111111 F"
b101000000100100000100010 B
b101000000100100000100010 T
b101000000100100000100010 /"
b0 C
b0 J"
b0 P"
b1 L"
#96
0"
0:
#102
b1001 Q
b1001 \
b1001 V"
b1001 X"
1?
b100100000100010 '"
b100111111 K"
b10011111111 P
b10011111111 7"
b10011111111 Q"
b100010 >
b100010 2"
b1001 F
b1001 U"
b0 L
b0 <"
b0 T"
b101 J
b101 :"
b100100000100010 @
b100100000100010 ?"
b10011111111 R"
b100000000000000001000 #"
b100000000000000001000 ."
b101000000100100000100010 W
b101000000100100000100010 A
b100000000000000001000 [
b100000000000000001000 2
b100000000000000001000 &"
b1000 _
b1000 R
b1000 8"
b10011111111 c
b10011111111 9
b10011111111 u
b10011111111 z
b10011111111 G"
b10011111111 O"
b11111111 s
b11111111 N
b11111111 I"
b100000000000000001000 ""
b10000000000000000100000 0
b10000000000000000100000 !
b10 `"
1"
1:
#103
b0 )
b0 @"
b0 E"
b0 A"
b0 M
b0 p
b0 {
b0 >"
b1100100 K
b1100100 v
b1100100 D"
b0 |
b1100100 w
b10011111111 6"
b0 H
b0 y
b0 ;"
b1100100 G
b1100100 t
b1100100 9"
#104
b100000000000000001001 D
b100000000000000001001 ~
b100000000000000001001 +"
b100000000000000001001 ,"
b1 &
b1 1"
b1 C"
b100000000000000001001 3
b100000000000000001001 X
b100000000000000001001 %"
b100000000000000001001 )"
b100000100100000101010 4
b100000100100000101010 ("
b100000100100000101010 *"
#105
b1100100 8
b1100100 `
b1100100 F"
b111000100101000000100010 B
b111000100101000000100010 T
b111000100101000000100010 /"
b11111111 L"
#108
0"
0:
#114
b1010 Q
b1010 \
b1010 V"
b11001 K"
b1100100 P
b1100100 7"
b1100100 Q"
b1010 X"
0?
b101000000100010 '"
b100000000000000001001 #"
b100000000000000001001 ."
b1100100 R"
b1010 F
b1010 U"
b10 L
b10 <"
b10 T"
b111 J
b111 :"
b101000000100010 @
b101000000100010 ?"
b10011111111 a"
b100000000000000001001 ""
b10000000000000000100100 0
b10000000000000000100100 !
b0 s
b0 N
b0 I"
b1100100 c
b1100100 9
b1100100 u
b1100100 z
b1100100 G"
b1100100 O"
b1001 _
b1001 R
b1001 8"
b100000000000000001001 [
b100000000000000001001 2
b100000000000000001001 &"
b111000100101000000100010 W
b111000100101000000100010 A
1"
1:
#115
b1 )
b1 @"
b1 E"
b1 A"
b1 M
b1 p
b1 {
b1 >"
b10 K
b10 v
b10 D"
b1 |
b10 w
b1100100 6"
b1 H
b1 y
b1 ;"
b10 G
b10 t
b10 9"
#116
b100000000000000001010 D
b100000000000000001010 ~
b100000000000000001010 +"
b100000000000000001010 ,"
b100000000000000001010 3
b100000000000000001010 X
b100000000000000001010 %"
b100000000000000001010 )"
b100000101000000101011 4
b100000101000000101011 ("
b100000101000000101011 *"
#117
b1 8
b1 `
b1 F"
b10101110100010000000000000000000 B
b10101110100010000000000000000000 T
b10101110100010000000000000000000 /"
b0 L"
#120
0"
0:
