Lab4/gcd_control.vcd
$date
	Sun Sep 24 19:27:38 2017
$end
$version
	Icarus Verilog
$end
$timescale
	1s
$end
$scope module gcd_control_test $end
$var wire 1 ! done $end
$var wire 32 " out [31:0] $end
$var wire 1 # output_en $end
$var wire 1 $ x_en $end
$var wire 1 % x_lt_y $end
$var wire 1 & x_ne_y $end
$var wire 1 ' x_sel $end
$var wire 1 ( y_en $end
$var wire 1 ) y_sel $end
$var reg 32 * X [31:0] $end
$var reg 32 + Y [31:0] $end
$var reg 1 , clock $end
$var reg 1 - go $end
$var reg 1 . reset $end
$scope module circuit $end
$var wire 32 / X [31:0] $end
$var wire 32 0 Y [31:0] $end
$var wire 1 1 clock $end
$var wire 32 2 muxleft [31:0] $end
$var wire 32 3 muxright [31:0] $end
$var wire 32 4 out [31:0] $end
$var wire 1 # output_en $end
$var wire 1 5 reset $end
$var wire 32 6 subl [31:0] $end
$var wire 32 7 subr [31:0] $end
$var wire 1 $ x_en $end
$var wire 1 % x_lt_y $end
$var wire 1 & x_ne_y $end
$var wire 1 ' x_sel $end
$var wire 32 8 xq [31:0] $end
$var wire 1 ( y_en $end
$var wire 1 ) y_sel $end
$var wire 32 9 yq [31:0] $end
$scope module mleft $end
$var wire 32 : A [31:0] $end
$var wire 32 ; B [31:0] $end
$var wire 32 < out [31:0] $end
$var wire 1 ' sel $end
$var wire 32 = temp1 [31:0] $end
$var wire 32 > temp2 [31:0] $end
$upscope $end
$scope module mright $end
$var wire 32 ? A [31:0] $end
$var wire 32 @ B [31:0] $end
$var wire 32 A out [31:0] $end
$var wire 1 ) sel $end
$var wire 32 B temp1 [31:0] $end
$var wire 32 C temp2 [31:0] $end
$upscope $end
$scope module rtpx $end
$var wire 1 1 clk $end
$var wire 32 D d [31:0] $end
$var wire 1 $ enable $end
$var wire 1 5 reset $end
$var reg 32 E q [31:0] $end
$upscope $end
$scope module rtpy $end
$var wire 1 1 clk $end
$var wire 32 F d [31:0] $end
$var wire 1 ( enable $end
$var wire 1 5 reset $end
$var reg 32 G q [31:0] $end
$upscope $end
$scope module sl $end
$var wire 32 H A [31:0] $end
$var wire 32 I B [31:0] $end
$var wire 32 J out [31:0] $end
$upscope $end
$scope module sr $end
$var wire 32 K A [31:0] $end
$var wire 32 L B [31:0] $end
$var wire 32 M out [31:0] $end
$upscope $end
$scope module comp $end
$var wire 32 N A [31:0] $end
$var wire 32 O B [31:0] $end
$var wire 1 % lt $end
$var wire 1 & ne $end
$upscope $end
$scope module outreg $end
$var wire 1 1 clk $end
$var wire 32 P d [31:0] $end
$var wire 1 # enable $end
$var wire 1 5 reset $end
$var reg 32 Q q [31:0] $end
$upscope $end
$upscope $end
$scope module control $end
$var wire 1 1 clock $end
$var wire 1 R dd $end
$var wire 1 S ddg $end
$var wire 1 T df $end
$var wire 1 U dfg $end
$var wire 1 V di $end
$var wire 1 ! done $end
$var wire 1 W ds $end
$var wire 1 X dx $end
$var wire 1 Y dxg $end
$var wire 1 Z fake_neq $end
$var wire 1 [ go $end
$var wire 1 # output_en $end
$var wire 1 \ qd $end
$var wire 1 ] qdg $end
$var wire 1 ^ qf $end
$var wire 1 _ qfg $end
$var wire 1 ` qi $end
$var wire 1 a qs $end
$var wire 1 b qx $end
$var wire 1 c qxg $end
$var wire 1 5 reset $end
$var wire 1 $ x_en $end
$var wire 1 % x_lt_y $end
$var wire 1 & x_ne_y $end
$var wire 1 ' x_sel $end
$var wire 1 ( y_en $end
$var wire 1 ) y_sel $end
$scope module RSTART $end
$var wire 1 1 clk $end
$var wire 1 W d $end
$var wire 1 d enable $end
$var wire 1 5 reset $end
$var reg 1 e q $end
$upscope $end
$scope module RINIT $end
$var wire 1 1 clk $end
$var wire 1 V d $end
$var wire 1 f enable $end
$var wire 1 5 reset $end
$var reg 1 g q $end
$upscope $end
$scope module RXDAYGO $end
$var wire 1 1 clk $end
$var wire 1 S d $end
$var wire 1 h enable $end
$var wire 1 5 reset $end
$var reg 1 i q $end
$upscope $end
$scope module RXDAYNGO $end
$var wire 1 1 clk $end
$var wire 1 R d $end
$var wire 1 j enable $end
$var wire 1 5 reset $end
$var reg 1 k q $end
$upscope $end
$scope module RXXIAOYGO $end
$var wire 1 1 clk $end
$var wire 1 Y d $end
$var wire 1 l enable $end
$var wire 1 5 reset $end
$var reg 1 m q $end
$upscope $end
$scope module RXXIAOYNGO $end
$var wire 1 1 clk $end
$var wire 1 X d $end
$var wire 1 n enable $end
$var wire 1 5 reset $end
$var reg 1 o q $end
$upscope $end
$scope module RFIN_GO $end
$var wire 1 1 clk $end
$var wire 1 U d $end
$var wire 1 p enable $end
$var wire 1 5 reset $end
$var reg 1 q q $end
$upscope $end
$scope module RFIN_NGO $end
$var wire 1 1 clk $end
$var wire 1 T d $end
$var wire 1 r enable $end
$var wire 1 5 reset $end
$var reg 1 s q $end
$upscope $end
$upscope $end
$upscope $end
$enddefinitions $end
#0
$dumpvars
0s
1r
0q
1p
0o
1n
0m
1l
0k
1j
0i
1h
0g
1f
0e
1d
0c
0b
0a
0`
0_
0^
0]
0\
0[
0Z
0Y
0X
1W
0V
0U
0T
0S
0R
b0 Q
b0 P
b0 O
b0 N
b0 M
b0 L
b0 K
b0 J
b0 I
b0 H
b0 G
b0 F
b0 E
b0 D
b0 C
b0 B
b0 A
b0 @
b0 ?
b0 >
b0 =
b0 <
b0 ;
b0 :
b0 9
b0 8
b0 7
b0 6
15
b0 4
b0 3
b0 2
01
b0 0
b0 /
1.
0-
0,
b0 +
b0 *
0)
0(
0'
0&
0%
0$
1#
b0 "
1!
$end
#1
0#
0!
1$
1Z
1e
1a
1W
0.
05
1,
11
#2
0,
01
#3
1,
11
#4
0,
01
#5
1,
11
#6
0W
1V
b111110111010011001101 3
b111110111010011001101 A
b111110111010011001101 F
b10011000011000000001 2
b10011000011000000001 <
b10011000011000000001 D
b111110111010011001101 B
b10011000011000000001 =
0,
01
1-
1[
b111110111010011001101 +
b111110111010011001101 0
b111110111010011001101 ?
b10011000011000000001 *
b10011000011000000001 /
b10011000011000000001 :
#7
1S
0V
b0 =
1(
b10011000011000000001 >
1'
1g
1`
0e
0a
b10011000011000000001 E
b10011000011000000001 6
b10011000011000000001 ;
b10011000011000000001 J
b11111111111101100111100111111111 7
b11111111111101100111100111111111 @
b11111111111101100111100111111111 M
1&
b10011000011000000001 8
b10011000011000000001 H
b10011000011000000001 L
b10011000011000000001 N
b10011000011000000001 P
1,
11
#8
0,
01
#9
b10011000011000000001 =
0$
b10011000011000000001 2
b10011000011000000001 <
b10011000011000000001 D
b101011110111011001100 3
b101011110111011001100 A
b101011110111011001100 F
0S
0'
b0 B
b0 >
b101011110111011001100 C
1Y
1)
1(
b111110111010011001101 G
b11111111111010100001000100110100 6
b11111111111010100001000100110100 ;
b11111111111010100001000100110100 J
b101011110111011001100 7
b101011110111011001100 @
b101011110111011001100 M
1%
b111110111010011001101 9
b111110111010011001101 I
b111110111010011001101 K
b111110111010011001101 O
0g
0`
1i
1]
1,
11
#10
0,
01
#11
b11000110100011001011 3
b11000110100011001011 A
b11000110100011001011 F
b11000110100011001011 C
1m
1c
0i
0]
b101011110111011001100 G
b11111111111100111001011100110101 6
b11111111111100111001011100110101 ;
b11111111111100111001011100110101 J
b11000110100011001011 7
b11000110100011001011 @
b11000110100011001011 M
b101011110111011001100 9
b101011110111011001100 I
b101011110111011001100 K
b101011110111011001100 O
1,
11
#12
0,
01
#13
b101110001011001010 3
b101110001011001010 A
b101110001011001010 F
b101110001011001010 C
b11000110100011001011 G
b11111111111111010001110100110110 6
b11111111111111010001110100110110 ;
b11111111111111010001110100110110 J
b101110001011001010 7
b101110001011001010 @
b101110001011001010 M
b11000110100011001011 9
b11000110100011001011 I
b11000110100011001011 K
b11000110100011001011 O
1,
11
#14
0,
01
#15
b1101010001100110111 2
b1101010001100110111 <
b1101010001100110111 D
b1101010001100110111 >
b0 =
1$
b111110111010011001101 3
b111110111010011001101 A
b111110111010011001101 F
1S
1'
b111110111010011001101 B
0(
b0 C
0Y
0)
b101110001011001010 G
b1101010001100110111 6
b1101010001100110111 ;
b1101010001100110111 J
b11111111111110010101110011001001 7
b11111111111110010101110011001001 @
b11111111111110010101110011001001 M
0%
b101110001011001010 9
b101110001011001010 I
b101110001011001010 K
b101110001011001010 O
1,
11
#16
1R
0S
0,
01
0-
0[
#17
b111100000001101101 2
b111100000001101101 <
b111100000001101101 D
b111100000001101101 >
b1101010001100110111 E
b111100000001101101 6
b111100000001101101 ;
b111100000001101101 J
b11111111111111000011111110010011 7
b11111111111111000011111110010011 @
b11111111111111000011111110010011 M
b1101010001100110111 8
b1101010001100110111 H
b1101010001100110111 L
b1101010001100110111 N
b1101010001100110111 P
1k
1\
0m
0c
1,
11
#18
0,
01
#19
b1101110110100011 2
b1101110110100011 <
b1101110110100011 D
b1101110110100011 >
b111100000001101101 E
b1101110110100011 6
b1101110110100011 ;
b1101110110100011 J
b11111111111111110010001001011101 7
b11111111111111110010001001011101 @
b11111111111111110010001001011101 M
b111100000001101101 8
b111100000001101101 H
b111100000001101101 L
b111100000001101101 N
b111100000001101101 P
1,
11
#20
0,
01
#21
0R
b10011000011000000001 =
0$
b10011000011000000001 2
b10011000011000000001 <
b10011000011000000001 D
b100000010100100111 3
b100000010100100111 A
b100000010100100111 F
1X
0'
b0 B
1(
b0 >
b100000010100100111 C
1)
b1101110110100011 E
b11111111111111011111101011011001 6
b11111111111111011111101011011001 ;
b11111111111111011111101011011001 J
b100000010100100111 7
b100000010100100111 @
b100000010100100111 M
1%
b1101110110100011 8
b1101110110100011 H
b1101110110100011 L
b1101110110100011 N
b1101110110100011 P
1,
11
#22
0,
01
#23
b10010011110000100 3
b10010011110000100 A
b10010011110000100 F
b10010011110000100 C
1o
1b
0k
0\
b100000010100100111 G
b11111111111111101101100001111100 6
b11111111111111101101100001111100 ;
b11111111111111101101100001111100 J
b10010011110000100 7
b10010011110000100 @
b10010011110000100 M
b100000010100100111 9
b100000010100100111 I
b100000010100100111 K
b100000010100100111 O
1,
11
#24
0,
01
#25
b100100111100001 3
b100100111100001 A
b100100111100001 F
b100100111100001 C
b10010011110000100 G
b11111111111111111011011000011111 6
b11111111111111111011011000011111 ;
b11111111111111111011011000011111 J
b100100111100001 7
b100100111100001 @
b100100111100001 M
b10010011110000100 9
b10010011110000100 I
b10010011110000100 K
b10010011110000100 O
1,
11
#26
0,
01
#27
b1001001111000010 2
b1001001111000010 <
b1001001111000010 D
1R
b1001001111000010 >
b0 =
1$
b111110111010011001101 3
b111110111010011001101 A
b111110111010011001101 F
0X
1'
b111110111010011001101 B
0(
b0 C
0)
b100100111100001 G
b1001001111000010 6
b1001001111000010 ;
b1001001111000010 J
b11111111111111110110110000111110 7
b11111111111111110110110000111110 @
b11111111111111110110110000111110 M
0%
b100100111100001 9
b100100111100001 I
b100100111100001 K
b100100111100001 O
1,
11
#28
0,
01
#29
b100100111100001 2
b100100111100001 <
b100100111100001 D
1R
b100100111100001 >
b1001001111000010 E
b100100111100001 6
b100100111100001 ;
b100100111100001 J
b11111111111111111011011000011111 7
b11111111111111111011011000011111 @
b11111111111111111011011000011111 M
b1001001111000010 8
b1001001111000010 H
b1001001111000010 L
b1001001111000010 N
b1001001111000010 P
1k
1\
0o
0b
1,
11
#30
0,
01
#31
1T
1#
1!
0$
0R
b10011000011000000001 2
b10011000011000000001 <
b10011000011000000001 D
b10011000011000000001 =
b0 >
0Z
0'
b100100111100001 E
b0 6
b0 ;
b0 J
b0 7
b0 @
b0 M
0&
b100100111100001 8
b100100111100001 H
b100100111100001 L
b100100111100001 N
b100100111100001 P
1,
11
#32
0,
01
#33
b100100111100001 Q
b100100111100001 "
b100100111100001 4
0k
0\
1s
1^
1,
11
#34
0,
01
#35
1,
11
#36
0,
01
#37
1,
11
#38
0,
01
#39
1,
11
#40
0,
01
#41
1,
11
#42
0,
01
#43
1,
11
#44
0,
01
#45
1,
11
#46
0,
01
#47
1,
11
#48
0,
01
#49
1,
11
#50
0,
01
#51
1,
11
#52
0,
01
#53
1,
11
#54
0,
01
#55
1,
11
#56
0,
01
#57
1,
11
#58
0,
01
#59
1,
11
#60
0,
01
#61
1,
11
#62
0,
01
#63
1,
11
#64
0,
01
#65
1,
11
#66
b101100 3
b101100 A
b101100 F
b10110 2
b10110 <
b10110 D
b101100 B
b10110 =
0,
01
b101100 +
b101100 0
b101100 ?
b10110 *
b10110 /
b10110 :
